{
  "href" : "https://api.spotify.com/v1/browse/categories?country=BR&locale=pt_br&offset=0&limit=20",
  "items" : [ {
    "href" : "https://api.spotify.com/v1/browse/categories/toplists",
    "icons" : [ {
      "height" : 275,
      "url" : "https://t.scdn.co/media/derived/toplists_11160599e6a04ac5d6f2757f5511778f_0_0_275_275.jpg",
      "width" : 275
    } ],
    "id" : "toplists",
    "name" : "Top Lists"
  }, {
    "href" : "https://api.spotify.com/v1/browse/categories/at_home",
    "icons" : [ {
      "height" : null,
      "url" : "https://t.scdn.co/images/04da469dd7be4dab96659aa1fa9f0ac9.jpeg",
      "width" : null
    } ],
    "id" : "at_home",
    "name" : "Em casa"
  }, {
    "href" : "https://api.spotify.com/v1/browse/categories/brazil",
    "icons" : [ {
      "height" : null,
      "url" : "https://t.scdn.co/images/131fcbdd35ab418ca6df1fdb3038812f.jpeg",
      "width" : null
    } ],
    "id" : "brazil",
    "name" : "Brasil"
  }, {
    "href" : "https://api.spotify.com/v1/browse/categories/sertanejo",
    "icons" : [ {
      "height" : null,
      "url" : "https://t.scdn.co/images/8e6eaf8b5c9449fdbb689a4fdace1f25.jpeg",
      "width" : null
    } ],
    "id" : "sertanejo",
    "name" : "Sertanejo"
  }, {
    "href" : "https://api.spotify.com/v1/browse/categories/pop",
    "icons" : [ {
      "height" : 274,
      "url" : "https://t.scdn.co/media/derived/pop-274x274_447148649685019f5e2a03a39e78ba52_0_0_274_274.jpg",
      "width" : 274
    } ],
    "id" : "pop",
    "name" : "Pop"
  }, {
    "href" : "https://api.spotify.com/v1/browse/categories/samba___pagode",
    "icons" : [ {
      "height" : null,
      "url" : "https://t.scdn.co/images/b6d29a00a0254560bdc2dbff2234fcf5.jpeg",
      "width" : null
    } ],
    "id" : "samba___pagode",
    "name" : "Samba & Pagode"
  }, {
    "href" : "https://api.spotify.com/v1/browse/categories/wellness",
    "icons" : [ {
      "height" : null,
      "url" : "https://t.scdn.co/images/2adf91e7179a4e098834d630c74824b1.jpeg",
      "width" : null
    } ],
    "id" : "wellness",
    "name" : "Bem-estar"
  }, {
    "href" : "https://api.spotify.com/v1/browse/categories/rock",
    "icons" : [ {
      "height" : 274,
      "url" : "https://t.scdn.co/media/derived/rock_9ce79e0a4ef901bbd10494f5b855d3cc_0_0_274_274.jpg",
      "width" : 274
    } ],
    "id" : "rock",
    "name" : "Rock"
  }, {
    "href" : "https://api.spotify.com/v1/browse/categories/hiphop",
    "icons" : [ {
      "height" : 274,
      "url" : "https://t.scdn.co/media/original/hip-274_0a661854d61e29eace5fe63f73495e68_274x274.jpg",
      "width" : 274
    } ],
    "id" : "hiphop",
    "name" : "Hip Hop"
  }, {
    "href" : "https://api.spotify.com/v1/browse/categories/inspirational",
    "icons" : [ {
      "height" : 274,
      "url" : "https://t.scdn.co/media/derived/icon-274x274_5ce6e0f681f0a76f9dcf9270dfd18489_0_0_274_274.jpg",
      "width" : 274
    } ],
    "id" : "inspirational",
    "name" : "Cristã"
  }, {
    "href" : "https://api.spotify.com/v1/browse/categories/mpb",
    "icons" : [ {
      "height" : null,
      "url" : "https://t.scdn.co/images/8a57723010c549cfa8105c45ed2229f1.jpeg",
      "width" : null
    } ],
    "id" : "mpb",
    "name" : "MPB"
  }, {
    "href" : "https://api.spotify.com/v1/browse/categories/cities",
    "icons" : [ {
      "height" : null,
      "url" : "https://t.scdn.co/images/e483d3973e2f4ad1b4ae96e5aa19faa8.jpeg",
      "width" : null
    } ],
    "id" : "cities",
    "name" : "Cidades"
  }, {
    "href" : "https://api.spotify.com/v1/browse/categories/edm_dance",
    "icons" : [ {
      "height" : 274,
      "url" : "https://t.scdn.co/media/derived/edm-274x274_0ef612604200a9c14995432994455a6d_0_0_274_274.jpg",
      "width" : 274
    } ],
    "id" : "edm_dance",
    "name" : "Eletrônica/Dance"
  }, {
    "href" : "https://api.spotify.com/v1/browse/categories/indie_alt",
    "icons" : [ {
      "height" : null,
      "url" : "https://t.scdn.co/images/fe06caf056474bc58862591cd60b57fc.jpeg",
      "width" : null
    } ],
    "id" : "indie_alt",
    "name" : "Indie"
  }, {
    "href" : "https://api.spotify.com/v1/browse/categories/popculture",
    "icons" : [ {
      "height" : 274,
      "url" : "https://t.scdn.co/media/derived/trending-274x274_7b238f7217985e79d3664f2734347b98_0_0_274_274.jpg",
      "width" : 274
    } ],
    "id" : "popculture",
    "name" : "Em alta"
  }, {
    "href" : "https://api.spotify.com/v1/browse/categories/mood",
    "icons" : [ {
      "height" : 274,
      "url" : "https://t.scdn.co/media/original/mood-274x274_976986a31ac8c49794cbdc7246fd5ad7_274x274.jpg",
      "width" : 274
    } ],
    "id" : "mood",
    "name" : "Seu astral"
  }, {
    "href" : "https://api.spotify.com/v1/browse/categories/party",
    "icons" : [ {
      "height" : 274,
      "url" : "https://t.scdn.co/media/links/partyicon_274x274.jpg",
      "width" : 274
    } ],
    "id" : "party",
    "name" : "Festa"
  }, {
    "href" : "https://api.spotify.com/v1/browse/categories/chill",
    "icons" : [ {
      "height" : 274,
      "url" : "https://t.scdn.co/media/derived/chill-274x274_4c46374f007813dd10b37e8d8fd35b4b_0_0_274_274.jpg",
      "width" : 274
    } ],
    "id" : "chill",
    "name" : "Relax"
  }, {
    "href" : "https://api.spotify.com/v1/browse/categories/romance",
    "icons" : [ {
      "height" : 274,
      "url" : "https://t.scdn.co/media/derived/romance-274x274_8100794c94847b6d27858bed6fa4d91b_0_0_274_274.jpg",
      "width" : 274
    } ],
    "id" : "romance",
    "name" : "Romântico"
  }, {
    "href" : "https://api.spotify.com/v1/browse/categories/sleep",
    "icons" : [ {
      "height" : 274,
      "url" : "https://t.scdn.co/media/derived/sleep-274x274_0d4f836af8fab7bf31526968073e671c_0_0_274_274.jpg",
      "width" : 274
    } ],
    "id" : "sleep",
    "name" : "Para dormir"
  } ],
  "limit" : 20,
  "next" : "https://api.spotify.com/v1/browse/categories?country=BR&locale=pt_br&offset=20&limit=20",
  "offset" : 0,
  "previous" : null,
  "total" : 46
}
